%YAML 1.1
%TAG !u! tag:unity3d.com,2011:
--- !u!1 &4776756212444994361
GameObject:
  m_ObjectHideFlags: 0
  m_CorrespondingSourceObject: {fileID: 0}
  m_PrefabInstance: {fileID: 0}
  m_PrefabAsset: {fileID: 0}
  serializedVersion: 6
  m_Component:
  - component: {fileID: 4004770202318343421}
  - component: {fileID: 8433275937245489923}
  - component: {fileID: 4399442043987243138}
  m_Layer: 0
  m_Name: Layer1
  m_TagString: Untagged
  m_Icon: {fileID: 0}
  m_NavMeshLayer: 0
  m_StaticEditorFlags: 0
  m_IsActive: 1
--- !u!4 &4004770202318343421
Transform:
  m_ObjectHideFlags: 0
  m_CorrespondingSourceObject: {fileID: 0}
  m_PrefabInstance: {fileID: 0}
  m_PrefabAsset: {fileID: 0}
  m_GameObject: {fileID: 4776756212444994361}
  m_LocalRotation: {x: -0, y: -0, z: -0, w: 1}
  m_LocalPosition: {x: 0, y: 0, z: 0}
  m_LocalScale: {x: 1, y: 1, z: 1}
  m_Children: []
  m_Father: {fileID: 704444624884017303}
  m_RootOrder: 0
  m_LocalEulerAnglesHint: {x: 0, y: 0, z: 0}
--- !u!1839735485 &8433275937245489923
Tilemap:
  m_ObjectHideFlags: 0
  m_CorrespondingSourceObject: {fileID: 0}
  m_PrefabInstance: {fileID: 0}
  m_PrefabAsset: {fileID: 0}
  m_GameObject: {fileID: 4776756212444994361}
  m_Enabled: 1
  m_Tiles:
  - first: {x: -1, y: -6, z: 0}
    second:
      serializedVersion: 2
      m_TileIndex: 35
      m_TileSpriteIndex: 35
      m_TileMatrixIndex: 0
      m_TileColorIndex: 0
      m_TileObjectToInstantiateIndex: 65535
      m_AllTileFlags: 1073741825
  - first: {x: 0, y: -6, z: 0}
    second:
      serializedVersion: 2
      m_TileIndex: 36
      m_TileSpriteIndex: 36
      m_TileMatrixIndex: 0
      m_TileColorIndex: 0
      m_TileObjectToInstantiateIndex: 65535
      m_AllTileFlags: 1073741825
  - first: {x: 1, y: -6, z: 0}
    second:
      serializedVersion: 2
      m_TileIndex: 37
      m_TileSpriteIndex: 37
      m_TileMatrixIndex: 0
      m_TileColorIndex: 0
      m_TileObjectToInstantiateIndex: 65535
      m_AllTileFlags: 1073741825
  - first: {x: 2, y: -6, z: 0}
    second:
      serializedVersion: 2
      m_TileIndex: 38
      m_TileSpriteIndex: 38
      m_TileMatrixIndex: 0
      m_TileColorIndex: 0
      m_TileObjectToInstantiateIndex: 65535
      m_AllTileFlags: 1073741825
  - first: {x: 3, y: -6, z: 0}
    second:
      serializedVersion: 2
      m_TileIndex: 39
      m_TileSpriteIndex: 39
      m_TileMatrixIndex: 0
      m_TileColorIndex: 0
      m_TileObjectToInstantiateIndex: 65535
      m_AllTileFlags: 1073741825
  - first: {x: 4, y: -6, z: 0}
    second:
      serializedVersion: 2
      m_TileIndex: 40
      m_TileSpriteIndex: 40
      m_TileMatrixIndex: 0
      m_TileColorIndex: 0
      m_TileObjectToInstantiateIndex: 65535
      m_AllTileFlags: 1073741825
  - first: {x: 5, y: -6, z: 0}
    second:
      serializedVersion: 2
      m_TileIndex: 41
      m_TileSpriteIndex: 41
      m_TileMatrixIndex: 0
      m_TileColorIndex: 0
      m_TileObjectToInstantiateIndex: 65535
      m_AllTileFlags: 1073741825
  - first: {x: -1, y: -5, z: 0}
    second:
      serializedVersion: 2
      m_TileIndex: 28
      m_TileSpriteIndex: 28
      m_TileMatrixIndex: 0
      m_TileColorIndex: 0
      m_TileObjectToInstantiateIndex: 65535
      m_AllTileFlags: 1073741825
  - first: {x: 0, y: -5, z: 0}
    second:
      serializedVersion: 2
      m_TileIndex: 29
      m_TileSpriteIndex: 29
      m_TileMatrixIndex: 0
      m_TileColorIndex: 0
      m_TileObjectToInstantiateIndex: 65535
      m_AllTileFlags: 1073741825
  - first: {x: 1, y: -5, z: 0}
    second:
      serializedVersion: 2
      m_TileIndex: 30
      m_TileSpriteIndex: 30
      m_TileMatrixIndex: 0
      m_TileColorIndex: 0
      m_TileObjectToInstantiateIndex: 65535
      m_AllTileFlags: 1073741825
  - first: {x: 2, y: -5, z: 0}
    second:
      serializedVersion: 2
      m_TileIndex: 31
      m_TileSpriteIndex: 31
      m_TileMatrixIndex: 0
      m_TileColorIndex: 0
      m_TileObjectToInstantiateIndex: 65535
      m_AllTileFlags: 1073741825
  - first: {x: 3, y: -5, z: 0}
    second:
      serializedVersion: 2
      m_TileIndex: 32
      m_TileSpriteIndex: 32
      m_TileMatrixIndex: 0
      m_TileColorIndex: 0
      m_TileObjectToInstantiateIndex: 65535
      m_AllTileFlags: 1073741825
  - first: {x: 4, y: -5, z: 0}
    second:
      serializedVersion: 2
      m_TileIndex: 33
      m_TileSpriteIndex: 33
      m_TileMatrixIndex: 0
      m_TileColorIndex: 0
      m_TileObjectToInstantiateIndex: 65535
      m_AllTileFlags: 1073741825
  - first: {x: 5, y: -5, z: 0}
    second:
      serializedVersion: 2
      m_TileIndex: 34
      m_TileSpriteIndex: 34
      m_TileMatrixIndex: 0
      m_TileColorIndex: 0
      m_TileObjectToInstantiateIndex: 65535
      m_AllTileFlags: 1073741825
  - first: {x: -1, y: -4, z: 0}
    second:
      serializedVersion: 2
      m_TileIndex: 21
      m_TileSpriteIndex: 21
      m_TileMatrixIndex: 0
      m_TileColorIndex: 0
      m_TileObjectToInstantiateIndex: 65535
      m_AllTileFlags: 1073741825
  - first: {x: 0, y: -4, z: 0}
    second:
      serializedVersion: 2
      m_TileIndex: 22
      m_TileSpriteIndex: 22
      m_TileMatrixIndex: 0
      m_TileColorIndex: 0
      m_TileObjectToInstantiateIndex: 65535
      m_AllTileFlags: 1073741825
  - first: {x: 1, y: -4, z: 0}
    second:
      serializedVersion: 2
      m_TileIndex: 23
      m_TileSpriteIndex: 23
      m_TileMatrixIndex: 0
      m_TileColorIndex: 0
      m_TileObjectToInstantiateIndex: 65535
      m_AllTileFlags: 1073741825
  - first: {x: 2, y: -4, z: 0}
    second:
      serializedVersion: 2
      m_TileIndex: 24
      m_TileSpriteIndex: 24
      m_TileMatrixIndex: 0
      m_TileColorIndex: 0
      m_TileObjectToInstantiateIndex: 65535
      m_AllTileFlags: 1073741825
  - first: {x: 3, y: -4, z: 0}
    second:
      serializedVersion: 2
      m_TileIndex: 25
      m_TileSpriteIndex: 25
      m_TileMatrixIndex: 0
      m_TileColorIndex: 0
      m_TileObjectToInstantiateIndex: 65535
      m_AllTileFlags: 1073741825
  - first: {x: 4, y: -4, z: 0}
    second:
      serializedVersion: 2
      m_TileIndex: 26
      m_TileSpriteIndex: 26
      m_TileMatrixIndex: 0
      m_TileColorIndex: 0
      m_TileObjectToInstantiateIndex: 65535
      m_AllTileFlags: 1073741825
  - first: {x: 5, y: -4, z: 0}
    second:
      serializedVersion: 2
      m_TileIndex: 27
      m_TileSpriteIndex: 27
      m_TileMatrixIndex: 0
      m_TileColorIndex: 0
      m_TileObjectToInstantiateIndex: 65535
      m_AllTileFlags: 1073741825
  - first: {x: -1, y: -3, z: 0}
    second:
      serializedVersion: 2
      m_TileIndex: 14
      m_TileSpriteIndex: 14
      m_TileMatrixIndex: 0
      m_TileColorIndex: 0
      m_TileObjectToInstantiateIndex: 65535
      m_AllTileFlags: 1073741825
  - first: {x: 0, y: -3, z: 0}
    second:
      serializedVersion: 2
      m_TileIndex: 15
      m_TileSpriteIndex: 15
      m_TileMatrixIndex: 0
      m_TileColorIndex: 0
      m_TileObjectToInstantiateIndex: 65535
      m_AllTileFlags: 1073741825
  - first: {x: 1, y: -3, z: 0}
    second:
      serializedVersion: 2
      m_TileIndex: 16
      m_TileSpriteIndex: 16
      m_TileMatrixIndex: 0
      m_TileColorIndex: 0
      m_TileObjectToInstantiateIndex: 65535
      m_AllTileFlags: 1073741825
  - first: {x: 2, y: -3, z: 0}
    second:
      serializedVersion: 2
      m_TileIndex: 17
      m_TileSpriteIndex: 17
      m_TileMatrixIndex: 0
      m_TileColorIndex: 0
      m_TileObjectToInstantiateIndex: 65535
      m_AllTileFlags: 1073741825
  - first: {x: 3, y: -3, z: 0}
    second:
      serializedVersion: 2
      m_TileIndex: 18
      m_TileSpriteIndex: 18
      m_TileMatrixIndex: 0
      m_TileColorIndex: 0
      m_TileObjectToInstantiateIndex: 65535
      m_AllTileFlags: 1073741825
  - first: {x: 4, y: -3, z: 0}
    second:
      serializedVersion: 2
      m_TileIndex: 19
      m_TileSpriteIndex: 19
      m_TileMatrixIndex: 0
      m_TileColorIndex: 0
      m_TileObjectToInstantiateIndex: 65535
      m_AllTileFlags: 1073741825
  - first: {x: 5, y: -3, z: 0}
    second:
      serializedVersion: 2
      m_TileIndex: 20
      m_TileSpriteIndex: 20
      m_TileMatrixIndex: 0
      m_TileColorIndex: 0
      m_TileObjectToInstantiateIndex: 65535
      m_AllTileFlags: 1073741825
  - first: {x: -1, y: -2, z: 0}
    second:
      serializedVersion: 2
      m_TileIndex: 7
      m_TileSpriteIndex: 7
      m_TileMatrixIndex: 0
      m_TileColorIndex: 0
      m_TileObjectToInstantiateIndex: 65535
      m_AllTileFlags: 1073741825
  - first: {x: 0, y: -2, z: 0}
    second:
      serializedVersion: 2
      m_TileIndex: 8
      m_TileSpriteIndex: 8
      m_TileMatrixIndex: 0
      m_TileColorIndex: 0
      m_TileObjectToInstantiateIndex: 65535
      m_AllTileFlags: 1073741825
  - first: {x: 1, y: -2, z: 0}
    second:
      serializedVersion: 2
      m_TileIndex: 9
      m_TileSpriteIndex: 9
      m_TileMatrixIndex: 0
      m_TileColorIndex: 0
      m_TileObjectToInstantiateIndex: 65535
      m_AllTileFlags: 1073741825
  - first: {x: 2, y: -2, z: 0}
    second:
      serializedVersion: 2
      m_TileIndex: 10
      m_TileSpriteIndex: 10
      m_TileMatrixIndex: 0
      m_TileColorIndex: 0
      m_TileObjectToInstantiateIndex: 65535
      m_AllTileFlags: 1073741825
  - first: {x: 3, y: -2, z: 0}
    second:
      serializedVersion: 2
      m_TileIndex: 11
      m_TileSpriteIndex: 11
      m_TileMatrixIndex: 0
      m_TileColorIndex: 0
      m_TileObjectToInstantiateIndex: 65535
      m_AllTileFlags: 1073741825
  - first: {x: 4, y: -2, z: 0}
    second:
      serializedVersion: 2
      m_TileIndex: 12
      m_TileSpriteIndex: 12
      m_TileMatrixIndex: 0
      m_TileColorIndex: 0
      m_TileObjectToInstantiateIndex: 65535
      m_AllTileFlags: 1073741825
  - first: {x: 5, y: -2, z: 0}
    second:
      serializedVersion: 2
      m_TileIndex: 13
      m_TileSpriteIndex: 13
      m_TileMatrixIndex: 0
      m_TileColorIndex: 0
      m_TileObjectToInstantiateIndex: 65535
      m_AllTileFlags: 1073741825
  - first: {x: -1, y: -1, z: 0}
    second:
      serializedVersion: 2
      m_TileIndex: 0
      m_TileSpriteIndex: 0
      m_TileMatrixIndex: 0
      m_TileColorIndex: 0
      m_TileObjectToInstantiateIndex: 65535
      m_AllTileFlags: 1073741825
  - first: {x: 0, y: -1, z: 0}
    second:
      serializedVersion: 2
      m_TileIndex: 1
      m_TileSpriteIndex: 1
      m_TileMatrixIndex: 0
      m_TileColorIndex: 0
      m_TileObjectToInstantiateIndex: 65535
      m_AllTileFlags: 1073741825
  - first: {x: 1, y: -1, z: 0}
    second:
      serializedVersion: 2
      m_TileIndex: 2
      m_TileSpriteIndex: 2
      m_TileMatrixIndex: 0
      m_TileColorIndex: 0
      m_TileObjectToInstantiateIndex: 65535
      m_AllTileFlags: 1073741825
  - first: {x: 2, y: -1, z: 0}
    second:
      serializedVersion: 2
      m_TileIndex: 3
      m_TileSpriteIndex: 3
      m_TileMatrixIndex: 0
      m_TileColorIndex: 0
      m_TileObjectToInstantiateIndex: 65535
      m_AllTileFlags: 1073741825
  - first: {x: 3, y: -1, z: 0}
    second:
      serializedVersion: 2
      m_TileIndex: 4
      m_TileSpriteIndex: 4
      m_TileMatrixIndex: 0
      m_TileColorIndex: 0
      m_TileObjectToInstantiateIndex: 65535
      m_AllTileFlags: 1073741825
  - first: {x: 4, y: -1, z: 0}
    second:
      serializedVersion: 2
      m_TileIndex: 5
      m_TileSpriteIndex: 5
      m_TileMatrixIndex: 0
      m_TileColorIndex: 0
      m_TileObjectToInstantiateIndex: 65535
      m_AllTileFlags: 1073741825
  - first: {x: 5, y: -1, z: 0}
    second:
      serializedVersion: 2
      m_TileIndex: 6
      m_TileSpriteIndex: 6
      m_TileMatrixIndex: 0
      m_TileColorIndex: 0
      m_TileObjectToInstantiateIndex: 65535
      m_AllTileFlags: 1073741825
  m_AnimatedTiles: {}
  m_TileAssetArray:
  - m_RefCount: 1
    m_Data: {fileID: 11400000, guid: c82550e7f9a39d942b75e9198557d9a6, type: 2}
  - m_RefCount: 1
    m_Data: {fileID: 11400000, guid: 2369ccef61afabc47b9677ed663dd2d9, type: 2}
  - m_RefCount: 1
    m_Data: {fileID: 11400000, guid: 2ea8c555984f18445bdf5e246e3969c8, type: 2}
  - m_RefCount: 1
    m_Data: {fileID: 11400000, guid: ed6c2ef2b216c7047945b3ddbd4888a4, type: 2}
  - m_RefCount: 1
    m_Data: {fileID: 11400000, guid: ad72d2ce822bd894a9457bbe0ceeacd9, type: 2}
  - m_RefCount: 1
    m_Data: {fileID: 11400000, guid: df3769cb32902144fbd8bf30ab1c9f6d, type: 2}
  - m_RefCount: 1
    m_Data: {fileID: 11400000, guid: 8ca55102567d3da45b58ba3eefc539df, type: 2}
  - m_RefCount: 1
    m_Data: {fileID: 11400000, guid: 01924226406e34a41b7e2ee82c043922, type: 2}
  - m_RefCount: 1
    m_Data: {fileID: 11400000, guid: 276937c9f2e708a4283eb6858ed11044, type: 2}
  - m_RefCount: 1
    m_Data: {fileID: 11400000, guid: 6d2805a3ae1b3fa4f8fc7ab1cd955cc7, type: 2}
  - m_RefCount: 1
    m_Data: {fileID: 11400000, guid: 24468364930cbc141a88fe8ddb4d9240, type: 2}
  - m_RefCount: 1
    m_Data: {fileID: 11400000, guid: a1ae56a2999da9c45af3be5dedddbce7, type: 2}
  - m_RefCount: 1
    m_Data: {fileID: 11400000, guid: bd44317f6ccb3724891419d57b30a4ff, type: 2}
  - m_RefCount: 1
    m_Data: {fileID: 11400000, guid: 7ddb786829d568b4280e691042a6835e, type: 2}
  - m_RefCount: 1
    m_Data: {fileID: 11400000, guid: 475ab3c5f645afa4c8665a2de00fe734, type: 2}
  - m_RefCount: 1
    m_Data: {fileID: 11400000, guid: 23015185905ed2047b2d3e5a020c0eb7, type: 2}
  - m_RefCount: 1
    m_Data: {fileID: 11400000, guid: da0f3dd0e94214d458c82021cad92058, type: 2}
  - m_RefCount: 1
    m_Data: {fileID: 11400000, guid: 88b31d31d99cd6443a0abd01a8be1c10, type: 2}
  - m_RefCount: 1
    m_Data: {fileID: 11400000, guid: 3f063bd651f7e6448b9130f1e1352a48, type: 2}
  - m_RefCount: 1
    m_Data: {fileID: 11400000, guid: fb289d120fc8c0945a3a8c3d94057c97, type: 2}
  - m_RefCount: 1
    m_Data: {fileID: 11400000, guid: 021b5f2ac0957554b92ebdfa2f4b4f7c, type: 2}
  - m_RefCount: 1
    m_Data: {fileID: 11400000, guid: 4559fb8546d149c438384c39d13c7900, type: 2}
  - m_RefCount: 1
    m_Data: {fileID: 11400000, guid: 872b458635493e145bfc62114e929a97, type: 2}
  - m_RefCount: 1
    m_Data: {fileID: 11400000, guid: 30df156c4d8446444bf4ac743b4d28e2, type: 2}
  - m_RefCount: 1
    m_Data: {fileID: 11400000, guid: 6bdfba88cf8a1244eacd49c0f52dfd3f, type: 2}
  - m_RefCount: 1
    m_Data: {fileID: 11400000, guid: 05a33bb770018ad4f83c1960e62597fc, type: 2}
  - m_RefCount: 1
    m_Data: {fileID: 11400000, guid: 9c7dc43e38e2c424292b8ac4e7b7a86f, type: 2}
  - m_RefCount: 1
    m_Data: {fileID: 11400000, guid: 367afe104b5d12c4489bc91b10284389, type: 2}
  - m_RefCount: 1
    m_Data: {fileID: 11400000, guid: 00126eee66c19ab4382519a09488a39a, type: 2}
  - m_RefCount: 1
    m_Data: {fileID: 11400000, guid: 387e211ffb17f334ab489766749dd248, type: 2}
  - m_RefCount: 1
    m_Data: {fileID: 11400000, guid: b005f95fbe434e2459adabd482688673, type: 2}
  - m_RefCount: 1
    m_Data: {fileID: 11400000, guid: 7171cde658f6c304bb7dfecafe361ded, type: 2}
  - m_RefCount: 1
    m_Data: {fileID: 11400000, guid: 7ed18655cb75b9646a2596b4fb89caad, type: 2}
  - m_RefCount: 1
    m_Data: {fileID: 11400000, guid: 37136253d1d3cbf4da044fc609f7b52e, type: 2}
  - m_RefCount: 1
    m_Data: {fileID: 11400000, guid: 4a716eb8f3bd022438edcfd57943c807, type: 2}
  - m_RefCount: 1
    m_Data: {fileID: 11400000, guid: cdc9227c29867ba498197139ed764614, type: 2}
  - m_RefCount: 1
    m_Data: {fileID: 11400000, guid: 6d5948216f0f7a44ab01ea0471c82eb1, type: 2}
  - m_RefCount: 1
    m_Data: {fileID: 11400000, guid: a99a9b1a221c9664e9fbb61fcdf6da9c, type: 2}
  - m_RefCount: 1
    m_Data: {fileID: 11400000, guid: 45320d7caca10e04f82a28a00c1bb992, type: 2}
  - m_RefCount: 1
    m_Data: {fileID: 11400000, guid: c2b6d2e938ce034429c93183513ebca8, type: 2}
  - m_RefCount: 1
    m_Data: {fileID: 11400000, guid: 4d5be905ff1de7645bb4ff534344ca08, type: 2}
  - m_RefCount: 1
    m_Data: {fileID: 11400000, guid: 0793355961cd08943a7d816e719f451a, type: 2}
  m_TileSpriteArray:
  - m_RefCount: 1
    m_Data: {fileID: -436018922007507113, guid: 94b397e75d0ad0343bc66d7a79004c7c, type: 3}
  - m_RefCount: 1
    m_Data: {fileID: 8135039089985517320, guid: 94b397e75d0ad0343bc66d7a79004c7c, type: 3}
  - m_RefCount: 1
    m_Data: {fileID: -1696316242843658601, guid: 94b397e75d0ad0343bc66d7a79004c7c, type: 3}
  - m_RefCount: 1
    m_Data: {fileID: 2149230527801513856, guid: 94b397e75d0ad0343bc66d7a79004c7c, type: 3}
  - m_RefCount: 1
    m_Data: {fileID: 7520797077906548097, guid: 94b397e75d0ad0343bc66d7a79004c7c, type: 3}
  - m_RefCount: 1
    m_Data: {fileID: 1825541316485909798, guid: 94b397e75d0ad0343bc66d7a79004c7c, type: 3}
  - m_RefCount: 1
    m_Data: {fileID: -3645861213455850854, guid: 94b397e75d0ad0343bc66d7a79004c7c, type: 3}
  - m_RefCount: 1
    m_Data: {fileID: -2037340601871629103, guid: 94b397e75d0ad0343bc66d7a79004c7c, type: 3}
  - m_RefCount: 1
    m_Data: {fileID: 1720113824656167004, guid: 94b397e75d0ad0343bc66d7a79004c7c, type: 3}
  - m_RefCount: 1
    m_Data: {fileID: -7100198475466418924, guid: 94b397e75d0ad0343bc66d7a79004c7c, type: 3}
  - m_RefCount: 1
    m_Data: {fileID: -1160251338647186606, guid: 94b397e75d0ad0343bc66d7a79004c7c, type: 3}
  - m_RefCount: 1
    m_Data: {fileID: -699537562696524048, guid: 94b397e75d0ad0343bc66d7a79004c7c, type: 3}
  - m_RefCount: 1
    m_Data: {fileID: -3691310899198885080, guid: 94b397e75d0ad0343bc66d7a79004c7c, type: 3}
  - m_RefCount: 1
    m_Data: {fileID: 9092878479419947417, guid: 94b397e75d0ad0343bc66d7a79004c7c, type: 3}
  - m_RefCount: 1
    m_Data: {fileID: 7614801378135701332, guid: 94b397e75d0ad0343bc66d7a79004c7c, type: 3}
  - m_RefCount: 1
    m_Data: {fileID: -2300804140289987431, guid: 94b397e75d0ad0343bc66d7a79004c7c, type: 3}
  - m_RefCount: 1
    m_Data: {fileID: -816083292686282056, guid: 94b397e75d0ad0343bc66d7a79004c7c, type: 3}
  - m_RefCount: 1
    m_Data: {fileID: -7062110208264498494, guid: 94b397e75d0ad0343bc66d7a79004c7c, type: 3}
  - m_RefCount: 1
    m_Data: {fileID: -5050662426263468038, guid: 94b397e75d0ad0343bc66d7a79004c7c, type: 3}
  - m_RefCount: 1
    m_Data: {fileID: 1971589644107158372, guid: 94b397e75d0ad0343bc66d7a79004c7c, type: 3}
  - m_RefCount: 1
    m_Data: {fileID: 7246951805931095870, guid: 94b397e75d0ad0343bc66d7a79004c7c, type: 3}
  - m_RefCount: 1
    m_Data: {fileID: -6226542932854909695, guid: 94b397e75d0ad0343bc66d7a79004c7c, type: 3}
  - m_RefCount: 1
    m_Data: {fileID: 875416843613024427, guid: 94b397e75d0ad0343bc66d7a79004c7c, type: 3}
  - m_RefCount: 1
    m_Data: {fileID: -3391789897646161059, guid: 94b397e75d0ad0343bc66d7a79004c7c, type: 3}
  - m_RefCount: 1
    m_Data: {fileID: 2508484008997964194, guid: 94b397e75d0ad0343bc66d7a79004c7c, type: 3}
  - m_RefCount: 1
    m_Data: {fileID: -1083615233883068052, guid: 94b397e75d0ad0343bc66d7a79004c7c, type: 3}
  - m_RefCount: 1
    m_Data: {fileID: -4494934032664643835, guid: 94b397e75d0ad0343bc66d7a79004c7c, type: 3}
  - m_RefCount: 1
    m_Data: {fileID: 1902620173484231437, guid: 94b397e75d0ad0343bc66d7a79004c7c, type: 3}
  - m_RefCount: 1
    m_Data: {fileID: 4973603723698899207, guid: 94b397e75d0ad0343bc66d7a79004c7c, type: 3}
  - m_RefCount: 1
    m_Data: {fileID: 5676370745959112378, guid: 94b397e75d0ad0343bc66d7a79004c7c, type: 3}
  - m_RefCount: 1
    m_Data: {fileID: 802285194922834077, guid: 94b397e75d0ad0343bc66d7a79004c7c, type: 3}
  - m_RefCount: 1
    m_Data: {fileID: -3449309638408458025, guid: 94b397e75d0ad0343bc66d7a79004c7c, type: 3}
  - m_RefCount: 1
    m_Data: {fileID: -7035825207149768988, guid: 94b397e75d0ad0343bc66d7a79004c7c, type: 3}
  - m_RefCount: 1
    m_Data: {fileID: 7917649818450331968, guid: 94b397e75d0ad0343bc66d7a79004c7c, type: 3}
  - m_RefCount: 1
    m_Data: {fileID: 8149045020151740062, guid: 94b397e75d0ad0343bc66d7a79004c7c, type: 3}
  - m_RefCount: 1
    m_Data: {fileID: 5490521066497274127, guid: 94b397e75d0ad0343bc66d7a79004c7c, type: 3}
  - m_RefCount: 1
    m_Data: {fileID: 3772030687566088370, guid: 94b397e75d0ad0343bc66d7a79004c7c, type: 3}
  - m_RefCount: 1
    m_Data: {fileID: -3485571108804237074, guid: 94b397e75d0ad0343bc66d7a79004c7c, type: 3}
  - m_RefCount: 1
    m_Data: {fileID: -6644582734926806743, guid: 94b397e75d0ad0343bc66d7a79004c7c, type: 3}
  - m_RefCount: 1
    m_Data: {fileID: 6526920923570827061, guid: 94b397e75d0ad0343bc66d7a79004c7c, type: 3}
  - m_RefCount: 1
    m_Data: {fileID: -6115673825112875987, guid: 94b397e75d0ad0343bc66d7a79004c7c, type: 3}
  - m_RefCount: 1
    m_Data: {fileID: 3443420912157535937, guid: 94b397e75d0ad0343bc66d7a79004c7c, type: 3}
  m_TileMatrixArray:
  - m_RefCount: 42
    m_Data:
      e00: 1
      e01: 0
      e02: 0
      e03: 0
      e10: 0
      e11: 1
      e12: 0
      e13: 0
      e20: 0
      e21: 0
      e22: 1
      e23: 0
      e30: 0
      e31: 0
      e32: 0
      e33: 1
  m_TileColorArray:
  - m_RefCount: 42
    m_Data: {r: 1, g: 1, b: 1, a: 1}
  m_TileObjectToInstantiateArray: []
  m_AnimationFrameRate: 1
  m_Color: {r: 1, g: 1, b: 1, a: 1}
  m_Origin: {x: -1, y: -6, z: 0}
  m_Size: {x: 7, y: 6, z: 1}
  m_TileAnchor: {x: 0.5, y: 0.5, z: 0}
  m_TileOrientation: 0
  m_TileOrientationMatrix:
    e00: 1
    e01: 0
    e02: 0
    e03: 0
    e10: 0
    e11: 1
    e12: 0
    e13: 0
    e20: 0
    e21: 0
    e22: 1
    e23: 0
    e30: 0
    e31: 0
    e32: 0
    e33: 1
--- !u!483693784 &4399442043987243138
TilemapRenderer:
  m_ObjectHideFlags: 0
  m_CorrespondingSourceObject: {fileID: 0}
  m_PrefabInstance: {fileID: 0}
  m_PrefabAsset: {fileID: 0}
  m_GameObject: {fileID: 4776756212444994361}
  m_Enabled: 1
  m_CastShadows: 0
  m_ReceiveShadows: 0
  m_DynamicOccludee: 0
  m_MotionVectors: 1
  m_LightProbeUsage: 0
  m_ReflectionProbeUsage: 0
  m_RayTracingMode: 0
  m_RayTraceProcedural: 0
  m_RenderingLayerMask: 1
  m_RendererPriority: 0
  m_Materials:
  - {fileID: 10754, guid: 0000000000000000f000000000000000, type: 0}
  m_StaticBatchInfo:
    firstSubMesh: 0
    subMeshCount: 0
  m_StaticBatchRoot: {fileID: 0}
  m_ProbeAnchor: {fileID: 0}
  m_LightProbeVolumeOverride: {fileID: 0}
  m_ScaleInLightmap: 1
  m_ReceiveGI: 1
  m_PreserveUVs: 0
  m_IgnoreNormalsForChartDetection: 0
  m_ImportantGI: 0
  m_StitchLightmapSeams: 1
  m_SelectedEditorRenderState: 0
  m_MinimumChartSize: 4
  m_AutoUVMaxDistance: 0.5
  m_AutoUVMaxAngle: 89
  m_LightmapParameters: {fileID: 0}
  m_SortingLayerID: 0
  m_SortingLayer: 0
  m_SortingOrder: 0
  m_ChunkSize: {x: 32, y: 32, z: 32}
  m_ChunkCullingBounds: {x: 0, y: 0, z: 0}
  m_MaxChunkCount: 16
  m_MaxFrameAge: 16
  m_SortOrder: 0
  m_Mode: 0
  m_DetectChunkCullingBounds: 0
  m_MaskInteraction: 0
--- !u!1 &7125840378398657624
GameObject:
  m_ObjectHideFlags: 0
  m_CorrespondingSourceObject: {fileID: 0}
  m_PrefabInstance: {fileID: 0}
  m_PrefabAsset: {fileID: 0}
  serializedVersion: 6
  m_Component:
  - component: {fileID: 704444624884017303}
  - component: {fileID: 3176106292925544078}
  m_Layer: 31
  m_Name: SpaceWallPalette
  m_TagString: Untagged
  m_Icon: {fileID: 0}
  m_NavMeshLayer: 0
  m_StaticEditorFlags: 0
  m_IsActive: 1
--- !u!4 &704444624884017303
Transform:
  m_ObjectHideFlags: 0
  m_CorrespondingSourceObject: {fileID: 0}
  m_PrefabInstance: {fileID: 0}
  m_PrefabAsset: {fileID: 0}
  m_GameObject: {fileID: 7125840378398657624}
  m_LocalRotation: {x: 0, y: 0, z: 0, w: 1}
  m_LocalPosition: {x: 0, y: 0, z: 0}
  m_LocalScale: {x: 1, y: 1, z: 1}
  m_Children:
  - {fileID: 4004770202318343421}
  m_Father: {fileID: 0}
  m_RootOrder: 0
  m_LocalEulerAnglesHint: {x: 0, y: 0, z: 0}
--- !u!156049354 &3176106292925544078
Grid:
  m_ObjectHideFlags: 0
  m_CorrespondingSourceObject: {fileID: 0}
  m_PrefabInstance: {fileID: 0}
  m_PrefabAsset: {fileID: 0}
  m_GameObject: {fileID: 7125840378398657624}
  m_Enabled: 1
  m_CellSize: {x: 1, y: 1, z: 0}
  m_CellGap: {x: 0, y: 0, z: 0}
  m_CellLayout: 0
  m_CellSwizzle: 0
--- !u!114 &3363100315547962703
MonoBehaviour:
  m_ObjectHideFlags: 0
  m_CorrespondingSourceObject: {fileID: 0}
  m_PrefabInstance: {fileID: 0}
  m_PrefabAsset: {fileID: 0}
  m_GameObject: {fileID: 0}
  m_Enabled: 1
  m_EditorHideFlags: 0
  m_Script: {fileID: 12395, guid: 0000000000000000e000000000000000, type: 0}
  m_Name: Palette Settings
  m_EditorClassIdentifier: 
  cellSizing: 0
